2018-11-19 17:25:29 [INFO]::Debug: {"data":{"isNeedPage":1,"maxPageIndexNumber":9,"pageNumberList":[1,2,3,4,5,6,7,0,62],"total":615,"pageSize":10,"totalPage":62,"currentPage":1,"nextPage":2,"previousPage":0,"list":[{"pkid":"0dfba9e2ebdd11e8a6ac7cd30aeb153e","cover":"https://testres.alphalawyer.cn/icourt-live/20181119/c004efe9cc664e4c8502d4da4edc9b82","title":"接口测试-评论","lecturer":"","lecturerName":"杨文学","state":1,"type":1,"info":"接口测试接口测试自动化","createTime":1542619528000,"createUser":"A4D9227E801D11E8AAE67CD30AEB120C","updateTime":1542619528000,"updateUser":"","channel":"","producter":"","producterName":"杨兰丽","expectTime":6000000,"usetime":0,"startTime":0,"endTime":0,"pmsType":1,"expectStartTime":1542352680000,"property":0,"thumbnail":"https://testres.alphalawyer.cn/icourt-live/20181119/193a00e4bc8841dfa9e959ff22378228","viewNumber":0,"evaluate":-1.00,"chatGroup":"","goldenWord":"","resourceId":"0dfba9e2ebdd11e8a6ac7cd30aeb153e"},{"pkid":"f159c13cebdc11e8a6ac7cd30aeb153e","cover":"https://testres.alphalawyer.cn/icourt-live/20181119/c7718d3e3f6a4fe687a93dea898be633","title":"接口测试-评论","lecturer":"","lecturerName":"杨文学","state":3,"type":1,"info":"接口测试接口测试自动化","createTime":1542619480000,"createUser":"A4D9227E801D11E8AAE67CD30AEB120C","updateTime":1542619482000,"updateUser":"A4D9227E801D11E8AAE67CD30AEB120C","channel":"f6b8d2f63a714711a957dbb55177a5d7","producter":"","producterName":"杨兰丽","expectTime":6000000,"usetime":0,"startTime":1542619483000,"endTime":0,"pmsType":1,"expectStartTime":1542352680000,"property":0,"thumbnail":"https://testres.alphalawyer.cn/icourt-live/20181119/fdbb22a4504f434a9688b1203a06fd09","viewNumber":0,"evaluate":-1.00,"chatGroup":"58746709","goldenWord":"","resourceId":"f159c13cebdc11e8a6ac7cd30aeb153e"},{"pkid":"be682292ebdc11e8a6ac7cd30aeb153e","cover":"https://testres.alphalawyer.cn/icourt-live/20181119/070828ae9e9a449a91fb1f0fcc13a72f","title":"接口测试-评论","lecturer":"","lecturerName":"杨文学","state":3,"type":1,"info":"接口测试接口测试自动化","createTime":1542619395000,"createUser":"A4D9227E801D11E8AAE67CD30AEB120C","updateTime":1542619397000,"updateUser":"A4D9227E801D11E8AAE67CD30AEB120C","channel":"853ec1b72a12407a8e8425ee85260124","producter":"","producterName":"杨兰丽","expectTime":6000000,"usetime":0,"startTime":1542619397000,"endTime":0,"pmsType":1,"expectStartTime":1542352680000,"property":0,"thumbnail":"https://testres.alphalawyer.cn/icourt-live/20181119/9ab6c0f017c246958a8be518ccaedbf0","viewNumber":0,"evaluate":-1.00,"chatGroup":"58882878","goldenWord":"","resourceId":"be682292ebdc11e8a6ac7cd30aeb153e"},{"pkid":"7c8c07ecebdc11e8a6ac7cd30aeb153e","cover":"https://testres.alphalawyer.cn/icourt-live/20181119/d3ce6ef4ea6a47149f7e7f8a3c19a83f","title":"接口测试-评论","lecturer":"","lecturerName":"杨文学","state":3,"type":1,"info":"接口测试接口测试自动化","createTime":1542619284000,"createUser":"A4D9227E801D11E8AAE67CD30AEB120C","updateTime":1542619286000,"updateUser":"A4D9227E801D11E8AAE67CD30AEB120C","channel":"d41133fefd1a4459a2d018a1168c1065","producter":"","producterName":"杨兰丽","expectTime":6000000,"usetime":0,"startTime":1542619286000,"endTime":0,"pmsType":1,"expectStartTime":1542352680000,"property":0,"thumbnail":"https://testres.alphalawyer.cn/icourt-live/20181119/7b75f21a4abe4325ba69969cf9649827","viewNumber":0,"evaluate":-1.00,"chatGroup":"58746701","goldenWord":"","resourceId":"7c8c07ecebdc11e8a6ac7cd30aeb153e"},{"pkid":"06ef11e3ebdc11e8a6ac7cd30aeb153e","cover":"https://testres.alphalawyer.cn/icourt-live/20181119/e0fca9c2694846df8a079961e021083a","title":"接口测试-评论","lecturer":"","lecturerName":"杨文学","state":3,"type":1,"info":"接口测试接口测试自动化","createTime":1542619087000,"createUser":"A4D9227E801D11E8AAE67CD30AEB120C","updateTime":1542619089000,"updateUser":"A4D9227E801D11E8AAE67CD30AEB120C","channel":"7a6d0b77b0f44d2d9f472905da6a83bb","producter":"","producterName":"杨兰丽","expectTime":6000000,"usetime":0,"startTime":1542619089000,"endTime":0,"pmsType":1,"expectStartTime":1542352680000,"property":0,"thumbnail":"https://testres.alphalawyer.cn/icourt-live/20181119/625f7c408caa4fdcadf4a5ec247b94cb","viewNumber":0,"evaluate":-1.00,"chatGroup":"58815462","goldenWord":"","resourceId":"06ef11e3ebdc11e8a6ac7cd30aeb153e"},{"pkid":"dc649124ebdb11e8a6ac7cd30aeb153e","cover":"https://testres.alphalawyer.cn/icourt-live/20181119/d07648994c5a4035a6660691beb50ba1","title":"接口测试-评论","lecturer":"","lecturerName":"杨文学","state":3,"type":1,"info":"接口测试接口测试自动化","createTime":1542619016000,"createUser":"A4D9227E801D11E8AAE67CD30AEB120C","updateTime":1542619018000,"updateUser":"A4D9227E801D11E8AAE67CD30AEB120C","channel":"160f6cc08d364359a816bca055aa98be","producter":"","producterName":"杨兰丽","expectTime":6000000,"usetime":0,"startTime":1542619018000,"endTime":0,"pmsType":1,"expectStartTime":1542352680000,"property":0,"thumbnail":"https://testres.alphalawyer.cn/icourt-live/20181119/4a2d8cb78d514eed9c119f7a206f75a3","viewNumber":0,"evaluate":-1.00,"chatGroup":"58795381","goldenWord":"","resourceId":"dc649124ebdb11e8a6ac7cd30aeb153e"},{"pkid":"cdf7cd66ebdb11e8a6ac7cd30aeb153e","cover":"https://testres.alphalawyer.cn/icourt-live/20181119/5a6ff4aa9f954991bcf386c0c8daa6df","title":"接口测试-评论","lecturer":"","lecturerName":"杨文学","state":3,"type":1,"info":"接口测试接口测试自动化","createTime":1542618992000,"createUser":"A4D9227E801D11E8AAE67CD30AEB120C","updateTime":1542618993000,"updateUser":"A4D9227E801D11E8AAE67CD30AEB120C","channel":"91d52fbeb35e48898bee1b5f07aff8a3","producter":"","producterName":"杨兰丽","expectTime":6000000,"usetime":0,"startTime":1542618994000,"endTime":0,"pmsType":1,"expectStartTime":1542352680000,"property":0,"thumbnail":"https://testres.alphalawyer.cn/icourt-live/20181119/7509d8481e2144fcb5e6ee57222008bf","viewNumber":0,"evaluate":-1.00,"chatGroup":"58709590","goldenWord":"","resourceId":"cdf7cd66ebdb11e8a6ac7cd30aeb153e"},{"pkid":"ba9d8fd4ebdb11e8a6ac7cd30aeb153e","cover":"https://testres.alphalawyer.cn/icourt-live/20181119/2639af8195834bf2bcf36bff6cddf4af","title":"接口测试-评论","lecturer":"","lecturerName":"杨文学","state":3,"type":1,"info":"接口测试接口测试自动化","createTime":1542618959000,"createUser":"A4D9227E801D11E8AAE67CD30AEB120C","updateTime":1542618961000,"updateUser":"A4D9227E801D11E8AAE67CD30AEB120C","channel":"1110c28911cd4721a3dd776f9eba8908","producter":"","producterName":"杨兰丽","expectTime":6000000,"usetime":0,"startTime":1542618961000,"endTime":0,"pmsType":1,"expectStartTime":1542352680000,"property":0,"thumbnail":"https://testres.alphalawyer.cn/icourt-live/20181119/7bde53f62b884106a2f2a83fd4469cbc","viewNumber":0,"evaluate":-1.00,"chatGroup":"58910862","goldenWord":"","resourceId":"ba9d8fd4ebdb11e8a6ac7cd30aeb153e"},{"pkid":"a4d6a0c1ebdb11e8a6ac7cd30aeb153e","cover":"https://testres.alphalawyer.cn/icourt-live/20181119/6d4abfcc599c4b019e5820be2b8d5bf2","title":"接口测试-评论","lecturer":"","lecturerName":"杨文学","state":3,"type":1,"info":"接口测试接口测试自动化","createTime":1542618923000,"createUser":"A4D9227E801D11E8AAE67CD30AEB120C","updateTime":1542618924000,"updateUser":"A4D9227E801D11E8AAE67CD30AEB120C","channel":"bcdaf13e7cc2480eb5d2fea6d78706d9","producter":"","producterName":"杨兰丽","expectTime":6000000,"usetime":0,"startTime":1542618925000,"endTime":0,"pmsType":1,"expectStartTime":1542352680000,"property":0,"thumbnail":"https://testres.alphalawyer.cn/icourt-live/20181119/12cda519d93846e597b6ddb665135113","viewNumber":0,"evaluate":-1.00,"chatGroup":"58825597","goldenWord":"","resourceId":"a4d6a0c1ebdb11e8a6ac7cd30aeb153e"},{"pkid":"8c4be4aaebdb11e8a6ac7cd30aeb153e","cover":"https://testres.alphalawyer.cn/icourt-live/20181119/3c6df1bcb7bf4a2585c5da1cd7cfd49f","title":"接口测试-评论","lecturer":"","lecturerName":"杨文学","state":3,"type":1,"info":"接口测试接口测试自动化","createTime":1542618881000,"createUser":"A4D9227E801D11E8AAE67CD30AEB120C","updateTime":1542618886000,"updateUser":"A4D9227E801D11E8AAE67CD30AEB120C","channel":"76604d5ff4554ace92e08246c8124ebc","producter":"","producterName":"杨兰丽","expectTime":6000000,"usetime":0,"startTime":1542618887000,"endTime":0,"pmsType":1,"expectStartTime":1542352680000,"property":0,"thumbnail":"https://testres.alphalawyer.cn/icourt-live/20181119/bac2d6e440de4ec1a28e8658284983ba","viewNumber":0,"evaluate":-1.00,"chatGroup":"58757068","goldenWord":"","resourceId":"8c4be4aaebdb11e8a6ac7cd30aeb153e"}]},"isSuccess":true,"resultMsg":"执行成功","resultCode":200}
