{"name": "test_a[case3]", "status": "broken", "statusDetails": {"message": "_pytest.warning_types.RemovedInPytest4Warning: MarkInfo objects are deprecated as they contain merged marks which are hard to deal with correctly.\nPlease use node.get_closest_marker(name) or node.iter_markers(name).\nDocs: https://docs.pytest.org/en/latest/mark.html#updating-code", "trace": "self = <allure_pytest.listener.AllureListener object at 0x101f1ce10>\nitem = <Function 'test_a[case3]'>\n\n    @pytest.hookimpl(hookwrapper=True)\n    def pytest_runtest_teardown(self, item):\n        yield\n        uuid = self._cache.get(item.nodeid)\n        test_result = self.allure_logger.get_test(uuid)\n>       test_result.labels.extend([Label(name=name, value=value) for name, value in allure_labels(item)])\n\n/Library/Frameworks/Python.framework/Versions/3.7/lib/python3.7/site-packages/allure_pytest/listener.py:102: \n_ _ _ _ _ _ _ _ _ _ _ _ _ _ _ _ _ _ _ _ _ _ _ _ _ _ _ _ _ _ _ _ _ _ _ _ _ _ _ _ \n/Library/Frameworks/Python.framework/Versions/3.7/lib/python3.7/site-packages/allure_pytest/listener.py:102: in <listcomp>\n    test_result.labels.extend([Label(name=name, value=value) for name, value in allure_labels(item)])\n/Library/Frameworks/Python.framework/Versions/3.7/lib/python3.7/site-packages/allure_pytest/utils.py:46: in allure_labels\n    label_type = marker.kwargs['label_type']\n/Library/Frameworks/Python.framework/Versions/3.7/lib/python3.7/site-packages/allure_pytest/listener.py:102: in pytest_runtest_teardown\n    test_result.labels.extend([Label(name=name, value=value) for name, value in allure_labels(item)])\n/Library/Frameworks/Python.framework/Versions/3.7/lib/python3.7/site-packages/allure_pytest/listener.py:102: in <listcomp>\n    test_result.labels.extend([Label(name=name, value=value) for name, value in allure_labels(item)])\n/Library/Frameworks/Python.framework/Versions/3.7/lib/python3.7/site-packages/allure_pytest/utils.py:46: in allure_labels\n    label_type = marker.kwargs['label_type']\n/Library/Frameworks/Python.framework/Versions/3.7/lib/python3.7/site-packages/allure_pytest/listener.py:102: in pytest_runtest_teardown\n    test_result.labels.extend([Label(name=name, value=value) for name, value in allure_labels(item)])\n/Library/Frameworks/Python.framework/Versions/3.7/lib/python3.7/site-packages/allure_pytest/listener.py:102: in <listcomp>\n    test_result.labels.extend([Label(name=name, value=value) for name, value in allure_labels(item)])\n/Library/Frameworks/Python.framework/Versions/3.7/lib/python3.7/site-packages/allure_pytest/utils.py:46: in allure_labels\n    label_type = marker.kwargs['label_type']\n/Library/Frameworks/Python.framework/Versions/3.7/lib/python3.7/site-packages/allure_pytest/listener.py:102: in pytest_runtest_teardown\n    test_result.labels.extend([Label(name=name, value=value) for name, value in allure_labels(item)])\n/Library/Frameworks/Python.framework/Versions/3.7/lib/python3.7/site-packages/allure_pytest/listener.py:102: in <listcomp>\n    test_result.labels.extend([Label(name=name, value=value) for name, value in allure_labels(item)])\n_ _ _ _ _ _ _ _ _ _ _ _ _ _ _ _ _ _ _ _ _ _ _ _ _ _ _ _ _ _ _ _ _ _ _ _ _ _ _ _ \n\nitem = <Function 'test_a[case0]'>\n\n    def allure_labels(item):\n        for keyword in item.keywords.keys():\n            if keyword.startswith(ALLURE_LABEL_PREFIX):\n                marker = item.get_marker(keyword)\n>               label_type = marker.kwargs['label_type']\nE               _pytest.warning_types.RemovedInPytest4Warning: MarkInfo objects are deprecated as they contain merged marks which are hard to deal with correctly.\nE               Please use node.get_closest_marker(name) or node.iter_markers(name).\nE               Docs: https://docs.pytest.org/en/latest/mark.html#updating-code\n\n/Library/Frameworks/Python.framework/Versions/3.7/lib/python3.7/site-packages/allure_pytest/utils.py:46: RemovedInPytest4Warning"}, "steps": [{"name": "发送请求", "status": "passed", "attachments": [{"name": "POST", "source": "c4f313c1-e885-4167-b087-d72f40c9eb72-attachment.attach"}, {"name": "https://testadminschool.icourt.cc/live/api/v1/course/list", "source": "f7f320e9-cfcc-4c2c-ba99-c36ddc9542af-attachment.attach"}, {"name": "{\"orderBy\":null,\"orderByType\":null,\"pageIndex\":1,\"pageSize\":10,\"states\":[1,2,3,4,5],\"title\":null,\"pmsTypes\":[]}\n", "source": "52140abe-83fd-41ef-b455-421ddccf19bc-attachment.attach"}], "start": 1542619529405, "stop": 1542619529406}, {"name": "存储数据", "status": "passed", "attachments": [{"name": "{'today': '2018-11-19', 'token': 'eyJhbGciOiJIUzI1NiJ9.eyJvZmZpY2VfaWQiOiI5RTg2QTZCMzgwMDYxMUU4QUFFNjdDRDMwQUVCMTIwQyIsImRldmljZVR5cGUiOiJ3ZWIiLCJvZmZpY2VfbmFtZSI6IuWwj-apmeWtkOW-i-aJgCIsInVzZXJfaWQiOiJBNEQ5MjI3RTgwMUQxMUU4QUFFNjdDRDMwQUVCMTIwQyIsImxvZ2luVHlwZSI6IjIiLCJ1c2VyX25hbWUiOiLlsI_mqZnlrZAiLCJpc3MiOiJpTGF3LmNvbSIsImV4cCI6MTU0MjcwNTkyNzk4NSwiaWF0IjoxNTQyNjE5NTI3OTg1LCJvZmZpY2VUeXBlIjoicGxhdGZvcm0ifQ.-LgtvgEkIa25LSEh2a04ak4XRlpZAmnwPHeZsSyzMDM', 'officeid': '9E86A6B3800611E8AAE67CD30AEB120C', 'userid': 'A4D9227E801D11E8AAE67CD30AEB120C', 'now': 1542619528, 'randomint': 75780719, 'pageIndex': 0, 'pageSize': 300, 'effectRepeats': False, 'msgId': '0d431ed8ebdd11e8b8958c8590a05edb', 'cover': 'https://testres.alphalawyer.cn/icourt-live/20181119/c004efe9cc664e4c8502d4da4edc9b82', 'thumbnail': 'https://testres.alphalawyer.cn/icourt-live/20181119/193a00e4bc8841dfa9e959ff22378228', 'courseId': '0dfba9e2ebdd11e8a6ac7cd30aeb153e'}", "source": "91d7d350-e3c7-488e-bb45-b70e656a9f17-attachment.attach"}], "start": 1542619529519, "stop": 1542619529520}, {"name": "返回校验", "status": "passed", "attachments": [{"name": "成功", "source": "f2361123-1e89-46b6-8fc5-6a4fa41283c8-attachment.attach"}, {"name": "{\"data\":{\"isNeedPage\":1,\"maxPageIndexNumber\":9,\"pageNumberList\":[1,2,3,4,5,6,7,0,62],\"total\":615,\"pageSize\":10,\"totalPage\":62,\"currentPage\":1,\"nextPage\":2,\"previousPage\":0,\"list\":[{\"pkid\":\"0dfba9e2ebdd11e8a6ac7cd30aeb153e\",\"cover\":\"https://testres.alphalawyer.cn/icourt-live/20181119/c004efe9cc664e4c8502d4da4edc9b82\",\"title\":\"接口测试-评论\",\"lecturer\":\"\",\"lecturerName\":\"杨文学\",\"state\":1,\"type\":1,\"info\":\"接口测试接口测试自动化\",\"createTime\":1542619528000,\"createUser\":\"A4D9227E801D11E8AAE67CD30AEB120C\",\"updateTime\":1542619528000,\"updateUser\":\"\",\"channel\":\"\",\"producter\":\"\",\"producterName\":\"杨兰丽\",\"expectTime\":6000000,\"usetime\":0,\"startTime\":0,\"endTime\":0,\"pmsType\":1,\"expectStartTime\":1542352680000,\"property\":0,\"thumbnail\":\"https://testres.alphalawyer.cn/icourt-live/20181119/193a00e4bc8841dfa9e959ff22378228\",\"viewNumber\":0,\"evaluate\":-1.00,\"chatGroup\":\"\",\"goldenWord\":\"\",\"resourceId\":\"0dfba9e2ebdd11e8a6ac7cd30aeb153e\"},{\"pkid\":\"f159c13cebdc11e8a6ac7cd30aeb153e\",\"cover\":\"https://testres.alphalawyer.cn/icourt-live/20181119/c7718d3e3f6a4fe687a93dea898be633\",\"title\":\"接口测试-评论\",\"lecturer\":\"\",\"lecturerName\":\"杨文学\",\"state\":3,\"type\":1,\"info\":\"接口测试接口测试自动化\",\"createTime\":1542619480000,\"createUser\":\"A4D9227E801D11E8AAE67CD30AEB120C\",\"updateTime\":1542619482000,\"updateUser\":\"A4D9227E801D11E8AAE67CD30AEB120C\",\"channel\":\"f6b8d2f63a714711a957dbb55177a5d7\",\"producter\":\"\",\"producterName\":\"杨兰丽\",\"expectTime\":6000000,\"usetime\":0,\"startTime\":1542619483000,\"endTime\":0,\"pmsType\":1,\"expectStartTime\":1542352680000,\"property\":0,\"thumbnail\":\"https://testres.alphalawyer.cn/icourt-live/20181119/fdbb22a4504f434a9688b1203a06fd09\",\"viewNumber\":0,\"evaluate\":-1.00,\"chatGroup\":\"58746709\",\"goldenWord\":\"\",\"resourceId\":\"f159c13cebdc11e8a6ac7cd30aeb153e\"},{\"pkid\":\"be682292ebdc11e8a6ac7cd30aeb153e\",\"cover\":\"https://testres.alphalawyer.cn/icourt-live/20181119/070828ae9e9a449a91fb1f0fcc13a72f\",\"title\":\"接口测试-评论\",\"lecturer\":\"\",\"lecturerName\":\"杨文学\",\"state\":3,\"type\":1,\"info\":\"接口测试接口测试自动化\",\"createTime\":1542619395000,\"createUser\":\"A4D9227E801D11E8AAE67CD30AEB120C\",\"updateTime\":1542619397000,\"updateUser\":\"A4D9227E801D11E8AAE67CD30AEB120C\",\"channel\":\"853ec1b72a12407a8e8425ee85260124\",\"producter\":\"\",\"producterName\":\"杨兰丽\",\"expectTime\":6000000,\"usetime\":0,\"startTime\":1542619397000,\"endTime\":0,\"pmsType\":1,\"expectStartTime\":1542352680000,\"property\":0,\"thumbnail\":\"https://testres.alphalawyer.cn/icourt-live/20181119/9ab6c0f017c246958a8be518ccaedbf0\",\"viewNumber\":0,\"evaluate\":-1.00,\"chatGroup\":\"58882878\",\"goldenWord\":\"\",\"resourceId\":\"be682292ebdc11e8a6ac7cd30aeb153e\"},{\"pkid\":\"7c8c07ecebdc11e8a6ac7cd30aeb153e\",\"cover\":\"https://testres.alphalawyer.cn/icourt-live/20181119/d3ce6ef4ea6a47149f7e7f8a3c19a83f\",\"title\":\"接口测试-评论\",\"lecturer\":\"\",\"lecturerName\":\"杨文学\",\"state\":3,\"type\":1,\"info\":\"接口测试接口测试自动化\",\"createTime\":1542619284000,\"createUser\":\"A4D9227E801D11E8AAE67CD30AEB120C\",\"updateTime\":1542619286000,\"updateUser\":\"A4D9227E801D11E8AAE67CD30AEB120C\",\"channel\":\"d41133fefd1a4459a2d018a1168c1065\",\"producter\":\"\",\"producterName\":\"杨兰丽\",\"expectTime\":6000000,\"usetime\":0,\"startTime\":1542619286000,\"endTime\":0,\"pmsType\":1,\"expectStartTime\":1542352680000,\"property\":0,\"thumbnail\":\"https://testres.alphalawyer.cn/icourt-live/20181119/7b75f21a4abe4325ba69969cf9649827\",\"viewNumber\":0,\"evaluate\":-1.00,\"chatGroup\":\"58746701\",\"goldenWord\":\"\",\"resourceId\":\"7c8c07ecebdc11e8a6ac7cd30aeb153e\"},{\"pkid\":\"06ef11e3ebdc11e8a6ac7cd30aeb153e\",\"cover\":\"https://testres.alphalawyer.cn/icourt-live/20181119/e0fca9c2694846df8a079961e021083a\",\"title\":\"接口测试-评论\",\"lecturer\":\"\",\"lecturerName\":\"杨文学\",\"state\":3,\"type\":1,\"info\":\"接口测试接口测试自动化\",\"createTime\":1542619087000,\"createUser\":\"A4D9227E801D11E8AAE67CD30AEB120C\",\"updateTime\":1542619089000,\"updateUser\":\"A4D9227E801D11E8AAE67CD30AEB120C\",\"channel\":\"7a6d0b77b0f44d2d9f472905da6a83bb\",\"producter\":\"\",\"producterName\":\"杨兰丽\",\"expectTime\":6000000,\"usetime\":0,\"startTime\":1542619089000,\"endTime\":0,\"pmsType\":1,\"expectStartTime\":1542352680000,\"property\":0,\"thumbnail\":\"https://testres.alphalawyer.cn/icourt-live/20181119/625f7c408caa4fdcadf4a5ec247b94cb\",\"viewNumber\":0,\"evaluate\":-1.00,\"chatGroup\":\"58815462\",\"goldenWord\":\"\",\"resourceId\":\"06ef11e3ebdc11e8a6ac7cd30aeb153e\"},{\"pkid\":\"dc649124ebdb11e8a6ac7cd30aeb153e\",\"cover\":\"https://testres.alphalawyer.cn/icourt-live/20181119/d07648994c5a4035a6660691beb50ba1\",\"title\":\"接口测试-评论\",\"lecturer\":\"\",\"lecturerName\":\"杨文学\",\"state\":3,\"type\":1,\"info\":\"接口测试接口测试自动化\",\"createTime\":1542619016000,\"createUser\":\"A4D9227E801D11E8AAE67CD30AEB120C\",\"updateTime\":1542619018000,\"updateUser\":\"A4D9227E801D11E8AAE67CD30AEB120C\",\"channel\":\"160f6cc08d364359a816bca055aa98be\",\"producter\":\"\",\"producterName\":\"杨兰丽\",\"expectTime\":6000000,\"usetime\":0,\"startTime\":1542619018000,\"endTime\":0,\"pmsType\":1,\"expectStartTime\":1542352680000,\"property\":0,\"thumbnail\":\"https://testres.alphalawyer.cn/icourt-live/20181119/4a2d8cb78d514eed9c119f7a206f75a3\",\"viewNumber\":0,\"evaluate\":-1.00,\"chatGroup\":\"58795381\",\"goldenWord\":\"\",\"resourceId\":\"dc649124ebdb11e8a6ac7cd30aeb153e\"},{\"pkid\":\"cdf7cd66ebdb11e8a6ac7cd30aeb153e\",\"cover\":\"https://testres.alphalawyer.cn/icourt-live/20181119/5a6ff4aa9f954991bcf386c0c8daa6df\",\"title\":\"接口测试-评论\",\"lecturer\":\"\",\"lecturerName\":\"杨文学\",\"state\":3,\"type\":1,\"info\":\"接口测试接口测试自动化\",\"createTime\":1542618992000,\"createUser\":\"A4D9227E801D11E8AAE67CD30AEB120C\",\"updateTime\":1542618993000,\"updateUser\":\"A4D9227E801D11E8AAE67CD30AEB120C\",\"channel\":\"91d52fbeb35e48898bee1b5f07aff8a3\",\"producter\":\"\",\"producterName\":\"杨兰丽\",\"expectTime\":6000000,\"usetime\":0,\"startTime\":1542618994000,\"endTime\":0,\"pmsType\":1,\"expectStartTime\":1542352680000,\"property\":0,\"thumbnail\":\"https://testres.alphalawyer.cn/icourt-live/20181119/7509d8481e2144fcb5e6ee57222008bf\",\"viewNumber\":0,\"evaluate\":-1.00,\"chatGroup\":\"58709590\",\"goldenWord\":\"\",\"resourceId\":\"cdf7cd66ebdb11e8a6ac7cd30aeb153e\"},{\"pkid\":\"ba9d8fd4ebdb11e8a6ac7cd30aeb153e\",\"cover\":\"https://testres.alphalawyer.cn/icourt-live/20181119/2639af8195834bf2bcf36bff6cddf4af\",\"title\":\"接口测试-评论\",\"lecturer\":\"\",\"lecturerName\":\"杨文学\",\"state\":3,\"type\":1,\"info\":\"接口测试接口测试自动化\",\"createTime\":1542618959000,\"createUser\":\"A4D9227E801D11E8AAE67CD30AEB120C\",\"updateTime\":1542618961000,\"updateUser\":\"A4D9227E801D11E8AAE67CD30AEB120C\",\"channel\":\"1110c28911cd4721a3dd776f9eba8908\",\"producter\":\"\",\"producterName\":\"杨兰丽\",\"expectTime\":6000000,\"usetime\":0,\"startTime\":1542618961000,\"endTime\":0,\"pmsType\":1,\"expectStartTime\":1542352680000,\"property\":0,\"thumbnail\":\"https://testres.alphalawyer.cn/icourt-live/20181119/7bde53f62b884106a2f2a83fd4469cbc\",\"viewNumber\":0,\"evaluate\":-1.00,\"chatGroup\":\"58910862\",\"goldenWord\":\"\",\"resourceId\":\"ba9d8fd4ebdb11e8a6ac7cd30aeb153e\"},{\"pkid\":\"a4d6a0c1ebdb11e8a6ac7cd30aeb153e\",\"cover\":\"https://testres.alphalawyer.cn/icourt-live/20181119/6d4abfcc599c4b019e5820be2b8d5bf2\",\"title\":\"接口测试-评论\",\"lecturer\":\"\",\"lecturerName\":\"杨文学\",\"state\":3,\"type\":1,\"info\":\"接口测试接口测试自动化\",\"createTime\":1542618923000,\"createUser\":\"A4D9227E801D11E8AAE67CD30AEB120C\",\"updateTime\":1542618924000,\"updateUser\":\"A4D9227E801D11E8AAE67CD30AEB120C\",\"channel\":\"bcdaf13e7cc2480eb5d2fea6d78706d9\",\"producter\":\"\",\"producterName\":\"杨兰丽\",\"expectTime\":6000000,\"usetime\":0,\"startTime\":1542618925000,\"endTime\":0,\"pmsType\":1,\"expectStartTime\":1542352680000,\"property\":0,\"thumbnail\":\"https://testres.alphalawyer.cn/icourt-live/20181119/12cda519d93846e597b6ddb665135113\",\"viewNumber\":0,\"evaluate\":-1.00,\"chatGroup\":\"58825597\",\"goldenWord\":\"\",\"resourceId\":\"a4d6a0c1ebdb11e8a6ac7cd30aeb153e\"},{\"pkid\":\"8c4be4aaebdb11e8a6ac7cd30aeb153e\",\"cover\":\"https://testres.alphalawyer.cn/icourt-live/20181119/3c6df1bcb7bf4a2585c5da1cd7cfd49f\",\"title\":\"接口测试-评论\",\"lecturer\":\"\",\"lecturerName\":\"杨文学\",\"state\":3,\"type\":1,\"info\":\"接口测试接口测试自动化\",\"createTime\":1542618881000,\"createUser\":\"A4D9227E801D11E8AAE67CD30AEB120C\",\"updateTime\":1542618886000,\"updateUser\":\"A4D9227E801D11E8AAE67CD30AEB120C\",\"channel\":\"76604d5ff4554ace92e08246c8124ebc\",\"producter\":\"\",\"producterName\":\"杨兰丽\",\"expectTime\":6000000,\"usetime\":0,\"startTime\":1542618887000,\"endTime\":0,\"pmsType\":1,\"expectStartTime\":1542352680000,\"property\":0,\"thumbnail\":\"https://testres.alphalawyer.cn/icourt-live/20181119/bac2d6e440de4ec1a28e8658284983ba\",\"viewNumber\":0,\"evaluate\":-1.00,\"chatGroup\":\"58757068\",\"goldenWord\":\"\",\"resourceId\":\"8c4be4aaebdb11e8a6ac7cd30aeb153e\"}]},\"isSuccess\":true,\"resultMsg\":\"执行成功\",\"resultCode\":200}", "source": "12756d54-45c2-477f-a94f-dff3925d81e5-attachment.attach"}], "start": 1542619529520, "stop": 1542619529522}], "attachments": [{"name": "log", "source": "10c87588-3334-4718-b01d-16395edc405d-attachment.txt", "type": "text/plain"}, {"name": "stdout", "source": "8584ac48-2aef-43ff-9f6d-d7f9ab16d41b-attachment.txt", "type": "text/plain"}, {"name": "stderr", "source": "5ead8e32-5d7c-489d-b05a-288f8a2470c8-attachment.txt", "type": "text/plain"}], "parameters": [{"name": "case", "value": "{'id': 719, 'Runflag': 'Y', 'title': '课程列表', 'path': 'live/api/v1/course/list', 'model': '法学院后台', 'verifycode': '', 'method': 'POST', 'data': '{\"orderBy\":null,\"orderByType\":null,\"pageIndex\":1,\"pageSize\":10,\"states\":[1,2,3,4,5],\"title\":null,\"pmsTypes\":[]}\\n', 'filePath': '', 'expection': '', 'save': 'courseId', 'contain': '成功', 'datapath': '[\"data\"][\"list\"][0][\"pkid\"]', 'contentType': 'json', 'out': ''}"}], "start": 1542619529405, "stop": 1542619529523, "uuid": "12113613-7b4d-4921-9920-5b1dfcb7cba3", "historyId": "0a6c2e825ff6a888bf91c519314777b7", "fullName": "test_interface.TestClass#test_a[case3]"}